%YAML 1.1
%TAG !u! tag:unity3d.com,2011:
--- !u!114 &11400000
MonoBehaviour:
  m_ObjectHideFlags: 0
  m_CorrespondingSourceObject: {fileID: 0}
  m_PrefabInstance: {fileID: 0}
  m_PrefabAsset: {fileID: 0}
  m_GameObject: {fileID: 0}
  m_Enabled: 1
  m_EditorHideFlags: 0
  m_Script: {fileID: 11500000, guid: b999af49729bbdf4c950dbf355996a5a, type: 3}
  m_Name: allText
  m_EditorClassIdentifier: 
  misc:
  - a
  - b
  - c
  - d
  levelDisplayNames:
  - eng
  - tuorp
  - zgulbz
  - gruz
  - otatop
  dialogues:
  - portrait:
    - {fileID: 21300000, guid: e5efe28aaf10c8b4b93d8af8a9530306, type: 3}
    - {fileID: 21300000, guid: ade255b9a01595a4e85cd6fa892c96f0, type: 3}
    - {fileID: 21300000, guid: e5efe28aaf10c8b4b93d8af8a9530306, type: 3}
    nextDial: 010000000200000000000000
    text:
    - Ceci est un texte de test
    - Ceci est la suite du texte
    - Ici, je teste avec une virgule
    isChoice: 000001
  length1: 0
  length2: 0
